{
  // Server authentication info
  "servers": [
    {
      "host": "127.0.0.1",
      "username": "meteor",
      "password": "azrael"
      // or pem file (ssh based authentication)
      //"pem": "~/.ssh/id_rsa"
    }
  ],

  // Install MongoDB in the server, does not destroy local MongoDB on future setup
  "setupMongo": false,

  // WARNING: Node.js is required! Only skip if you already have Node.js installed on server.
  "setupNode": false,

  // WARNING: If nodeVersion omitted will setup 0.10.33 by default. Do not use v, only version number.
  "nodeVersion": "0.10.36",

  // Install PhantomJS in the server
  "setupPhantom": false,

  // Application name (No spaces)
  "appName": "i3portale",

  // Location of app (local directory)
  "app": "/home/meteor/i3portale",

  // Configure environment
  "env": {
    "PORT": 80,
    "ROOT_URL": "http://reise.skeltiserver.de",
    "MONGO_URL": "mongodb://meteor:azrael@127.0.0.1:27017/i3portale"
  },

  // Meteor Up checks if the app comes online just after the deployment
  // before mup checks that, it will wait for no. of seconds configured below
  "deployCheckWaitTime": 15
}
